{
    "date": "2023-08-10T06:28:45.576+00:00",
    "code": "OK",
    "message": "Appoinment list successfully retrieved",
    "data": {
        "content": [
            {
                "time": "10:30 AM - 11:00 AM",
                "timeSlot": "30 Mins",
                "patientImage": "https://www.gravatar.com/avatar/2c7d99fe281ecd3bcd65ab915bac6dd5?s=250",
                "patientName": "Henna West (A242)",
                "age": "65 yrs",
                "phoneNumber": "(235) 143-3243",
                "providerName": "Monica Geller",
                "providerSpeciality": "Dermatology",
                "appoinmentType": "New Appointment",
                "reasonForVisit": "Cough & Fever",
                "intakeFormStatus": "Submitted",
                "intakeFormSubStatus": "Send",
                "copayAmount": "$ 20 Due",
                "copayAmountStatus": "Collect Payment",
                "action": "Not Confirmed"
            },
            {
                "time": "10:30 AM - 11:00 AM",
                "timeSlot": "30 Mins",
                "patientImage": "https://www.gravatar.com/avatar/2c7d99fe281ecd3bcd65ab915bac6dd5?s=250",
                "patientName": "Ron Weasley (A987)",
                "age": "65 yrs",
                "phoneNumber": "(235) 143-3243",
                "providerName": "Monica Geller",
                "providerSpeciality": "Neurology",
                "appoinmentType": "New Appointment",
                "reasonForVisit": "Infection Disease",
                "intakeFormStatus": "Not Submitted",
                "intakeFormSubStatus": "Send",
                "copayAmount": "$ 20 Due",
                "copayAmountStatus": "View Recipe",
                "action": "Scheduled"
            },
            {
                "time": "10:30 AM - 11:00 AM",
                "timeSlot": "30 Mins",
                "patientImage": "https://www.gravatar.com/avatar/2c7d99fe281ecd3bcd65ab915bac6dd5?s=250",
                "patientName": "Mary Riddle (A463)",
                "age": "65 yrs",
                "phoneNumber": "(235) 143-3243",
                "providerName": "Monica Geller",
                "providerSpeciality": "Anesthesiology",
                "appoinmentType": "Follow Up",
                "reasonForVisit": "Cough & Fever",
                "intakeFormStatus": "Submitted",
                "intakeFormSubStatus": "Send",
                "copayAmount": "$ 20 Due",
                "copayAmountStatus": "Collect Payment",
                "action": "Check In"
            },
            {
                "time": "10:30 AM - 11:00 AM",
                "timeSlot": "30 Mins",
                "patientImage": "https://www.gravatar.com/avatar/2c7d99fe281ecd3bcd65ab915bac6dd5?s=250",
                "patientName": "Henna West (A242)",
                "age": "65 yrs",
                "phoneNumber": "(235) 143-3243",
                "providerName": "Monica Geller",
                "providerSpeciality": "Endocrinology",
                "appoinmentType": "New Appointment",
                "reasonForVisit": "Skin Infection",
                "intakeFormStatus": "Not Submitted",
                "intakeFormSubStatus": "Send",
                "copayAmount": "$ 20 Due",
                "copayAmountStatus": "View Recipe",
                "action": "Exam Room"
            },
            {
                "time": "02:00 PM - 03:00 PM",
                "timeSlot": "60 Mins",
                "patientImage": "https://www.gravatar.com/avatar/2c7d99fe281ecd3bcd65ab915bac6dd5?s=250",
                "patientName": "Demelza Robins (A324)",
                "age": "58 yrs",
                "phoneNumber": "(235) 143-3243",
                "providerName": "Edward Smith",
                "providerSpeciality": "Gastroenterology",
                "appoinmentType": "Follow Up",
                "reasonForVisit": "Fever",
                "intakeFormStatus": "Not Submitted",
                "intakeFormSubStatus": "Send",
                "copayAmount": "$ 80 Due",
                "copayAmountStatus": "Collect Payment",
                "action": "In Room - Intake"
            }
        ],
        "pageable": {
            "sort": [
                {
                    "direction": "DESC",
                    "property": "created",
                    "ignoreCase": false,
                    "nullHandling": "NATIVE",
                    "ascending": false,
                    "descending": true
                }
            ],
            "offset": 0,
            "pageNumber": 0,
            "pageSize": 10,
            "unpaged": false,
            "paged": true
        },
        "totalPages": 2,
        "totalElements": 13,
        "last": false,
        "size": 10,
        "number": 0,
        "sort": [
            {
                "direction": "DESC",
                "property": "created",
                "ignoreCase": false,
                "nullHandling": "NATIVE",
                "ascending": false,
                "descending": true
            }
        ],
        "numberOfElements": 10,
        "first": true,
        "empty": false
    },
    "path": "/api/patient",
    "requestId": "c47fba20-8b80-4d71-86f3-a6ab791cdf23",
    "version": "1.0"
}