{
    "content": [
        {
            "id": 1,
            "payerId": "13162",
            "payerName": "1199 National Benefit Fund"
        },
        {
            "id": 2,
            "payerId": "31147",
            "payerName": "1-888-OHIOCOMP (Ohio BWC)"
        },
        {
            "id": 3,
            "payerId": "58203",
            "payerName": "1st Medical Network - Atlanta, GA"
        },
        {
            "id": 4,
            "payerId": "59069",
            "payerName": "21st Century Health and Benefits"
        },
        {
            "id": 5,
            "payerId": "88053",
            "payerName": "360 Alliance - Gilsbar"
        },
        {
            "id": 6,
            "payerId": "20413",
            "payerName": "3P ADMIN"
        },
        {
            "id": 7,
            "payerId": "93044",
            "payerName": "A & I Benefit Plan Administrators"
        },
        {
            "id": 8,
            "payerId": "95241",
            "payerName": "A.G.I.A. Inc."
        },
        {
            "id": 9,
            "payerId": "75240",
            "payerName": "AAG Benefit Plan Administrators, Inc."
        },
        {
            "id": 10,
            "payerId": "37283",
            "payerName": "AAG-American Administrative Group (Formerly Gallagher Benefit Admin)"
        },
        {
            "id": 11,
            "payerId": "75185",
            "payerName": "AAG-American Administravie Group ( Formerly  Icon Benefit Admin)"
        },
        {
            "id": 12,
            "payerId": "E3510",
            "payerName": "ABMA (Alta Bates Medical Assocs) Medical Corp (Hnet Sr. and Secure Horizon)"
        },
        {
            "id": 13,
            "payerId": "03443",
            "payerName": "Abrazo Advantage Health Plan"
        },
        {
            "id": 14,
            "payerId": "68055",
            "payerName": "Absolute Total Care"
        },
        {
            "id": 15,
            "payerId": "TH067",
            "payerName": "Access Administrators"
        },
        {
            "id": 16,
            "payerId": "CM001",
            "payerName": "Access IPA"
        },
        {
            "id": 17,
            "payerId": "REGAL",
            "payerName": "Access IPA"
        },
        {
            "id": 18,
            "payerId": "64071",
            "payerName": "Acclaim"
        },
        {
            "id": 19,
            "payerId": "21356",
            "payerName": "Acclaim Repricing"
        },
        {
            "id": 20,
            "payerId": "72467",
            "payerName": "ACS Benefit Services, Inc."
        }
    ],
    "pageable": {
        "sort": [],
        "offset": 0,
        "pageNumber": 0,
        "pageSize": 20,
        "unpaged": false,
        "paged": true
    },
    "totalElements": 1383,
    "totalPages": 70,
    "last": false,
    "size": 20,
    "number": 0,
    "sort": [],
    "numberOfElements": 20,
    "first": true,
    "empty": false
}