{
    "content": [
        {
            "id": "1",
            "country": "US",
            "state": "Alabama (AL)"
        },
        {
            "id": "2",
            "country": "US",
            "state": "Alaska (AK)"
        },
        {
            "id": "3",
            "country": "US",
            "state": "Arizona (AZ)"
        },
        {
            "id": "4",
            "country": "US",
            "state": "Arkansas (AR)"
        },
        {
            "id": "5",
            "country": "US",
            "state": "California (CA)"
        },
        {
            "id": "6",
            "country": "US",
            "state": "Colorado (CO)"
        },
        {
            "id": "7",
            "country": "US",
            "state": "Connecticut (CT)"
        },
        {
            "id": "8",
            "country": "US",
            "state": "Delaware (DE)"
        },
        {
            "id": "9",
            "country": "US",
            "state": "Florida (FL)"
        },
        {
            "id": "10",
            "country": "US",
            "state": "Georgia (GA)"
        },
        {
            "id": "11",
            "country": "US",
            "state": "Hawaii (HI)"
        },
        {
            "id": "12",
            "country": "US",
            "state": "Idaho (ID)"
        },
        {
            "id": "13",
            "country": "US",
            "state": "Illinois (IL)"
        },
        {
            "id": "14",
            "country": "US",
            "state": "Indiana (IN)"
        },
        {
            "id": "15",
            "country": "US",
            "state": "Iowa (IA)"
        },
        {
            "id": "16",
            "country": "US",
            "state": "Kansas (KS)"
        },
        {
            "id": "17",
            "country": "US",
            "state": "Kentucky (KY)"
        },
        {
            "id": "18",
            "country": "US",
            "state": "Louisiana (LA)"
        },
        {
            "id": "19",
            "country": "US",
            "state": "Maine (ME)"
        },
        {
            "id": "20",
            "country": "US",
            "state": "Maryland (MD)"
        }
    ],
    "pageable": {
        "sort": [],
        "offset": 0,
        "pageNumber": 0,
        "pageSize": 20,
        "paged": true,
        "unpaged": false
    },
    "totalElements": 50,
    "totalPages": 3,
    "last": false,
    "size": 20,
    "number": 0,
    "sort": [],
    "numberOfElements": 20,
    "first": true,
    "empty": false
}