{
    "date": "2023-08-10T06:28:45.576+00:00",
    "code": "OK",
    "message": "Appoinment list successfully retrieved",
    "data": {
        "content": [
            {
                "timeSlot": "10:30 AM - 11:00 AM",
                "time": "10 Mins",
                "patientImage": "https://www.gravatar.com/avatar/2c7d99fe281ecd3bcd65ab915bac6dd5?s=250",
                "patientName": "Henna West (A242)",
                "age": "65 yrs",
                "phoneNumber": "(235) 143-3243",
                "providerName": "Monica Geller",
                "providerSpeciality": "Neurology",
                "appoinmentType": "Follow Up",
                "reasonForVisit": "Cough & Fever",
                "intakeFormStatus": "Submitted",
                "intakeFormSubStatus": "Send",
                "copayAmount": "$ 20 Due",
                "copayAmountStatus": "Collect Payment",
                "action": "Not Confirmed",
                "patientID":"A242",
                "serviceId":"S1732",
                "dateOfService":"10-07-2022",
                "PatientName":"Henna West (A242)",
                "PatientDetails":"65 yrs-M. (235) 143-3243",
                "serviceLocation":"Location 1",
                "actionButton":"Awaiting of sign-off"

            },
            {
                "timeSlot": "10:30 AM - 11:00 AM",
                "time": "30 Mins",
                "patientImage": "https://www.gravatar.com/avatar/2c7d99fe281ecd3bcd65ab915bac6dd5?s=250",
                "patientName": "Ludo Bagman (A397)",
                "age": "53 yrs",
                "phoneNumber": "(115) 143-3113",
                "providerName": "Monica Geller",
                "providerSpeciality": "Anesthesiology",
                "appoinmentType": "New Appointment",
                "reasonForVisit": "Infection Disease",
                "intakeFormStatus": "Not Submitted",
                "intakeFormSubStatus": "Send",
                "copayAmount": "$ 20 Due",
                "copayAmountStatus": "View Recipe",
                "action": "Scheduled",
                "patientID":"A242",
                "serviceId":"S1732",
                "dateOfService":"10-07-2022",
                "Patient Name":"Henna West (A242)",
                "Patient Details":"65 yrs-M. (235) 143-3243",
                "serviceLocation":"Location 2",
                "actionButton":"Missing CPT code"
            },
            {
                "timeSlot": "10:30 AM - 11:00 AM",
                "time": "30 Mins",
                "patientImage": "https://www.gravatar.com/avatar/2c7d99fe281ecd3bcd65ab915bac6dd5?s=250",
                "patientName": "Demelza Robins (A324)",
                "age": "44 yrs",
                "phoneNumber": "(235) 143-3243",
                "providerName": "Monica Geller",
                "providerSpeciality": "Endocrinology",
                "appoinmentType": "Follow Up",
                "reasonForVisit": "Fever",
                "intakeFormStatus": "Submitted",
                "intakeFormSubStatus": "Send",
                "copayAmount": "$ 20 Due",
                "copayAmountStatus": "Collect Payment",
                "action": "Check In",
                "patientID":"A242",
                "serviceId":"S1732",
                "dateOfService":"10-07-2022",
                "Patient Name":"Henna West (A242)",
                "Patient Details":"65 yrs-M. (235) 143-3243",
                "serviceLocation":"Location 3",
                "actionButton":"Missing ICD code"
            },
            {
                "timeSlot": "10:30 AM - 11:00 AM",
                "time": "30 Mins",
                "patientImage": "https://www.gravatar.com/avatar/2c7d99fe281ecd3bcd65ab915bac6dd5?s=250",
                "patientName": "Ron Weasley (A987)",
                "age": "61 yrs",
                "phoneNumber": "(235) 143-3243",
                "providerName": "Monica Geller",
                "providerSpeciality": "Gastroenterology",
                "appoinmentType": "New Appointment",
                "reasonForVisit": "Skin Infection",
                "intakeFormStatus": "Not Submitted",
                "intakeFormSubStatus": "Send",
                "copayAmount": "$ 20 Due",
                "copayAmountStatus": "View Recipe",
                "action": "Exam Room",
                "patientID":"A242",
                "serviceId":"S1732",
                "dateOfService":"10-07-2022",
                "Patient Name":"Henna West (A242)",
                "Patient Details":"65 yrs-M. (235) 143-3243",
                "serviceLocation":"Location 4",
                "actionButton":"Awaiting of sign-off"

            },
            {
                "timeSlot": "10:30 AM - 11:00 AM",
                "time": "30 Mins",
                "patientImage": "https://www.gravatar.com/avatar/2c7d99fe281ecd3bcd65ab915bac6dd5?s=250",
                "patientName": "Ludo Bagman (A397)",
                "age": "58 yrs",
                "phoneNumber": "(235) 143-3243",
                "providerName": "Monica Geller",
                "providerSpeciality": "Anesthesiology",
                "appoinmentType": "New Appointment",
                "reasonForVisit": "Cough & Fever",
                "intakeFormStatus": "Not Submitted",
                "intakeFormSubStatus": "Send",
                "copayAmount": "$ 20 Due",
                "copayAmountStatus": "View Recipe",
                "action": "Exam Room",
                "patientID":"A242",
                "serviceId":"S1732",
                "dateOfService":"10-07-2022",
                "Patient Name":"Henna West (A242)",
                "Patient Details":"65 yrs-M. (235) 143-3243",
                "serviceLocation":"Location 4",
                "actionButton":"Missing ICD code"

            }
        ],
        "pageable": {
            "sort": [
                {
                    "direction": "DESC",
                    "property": "created",
                    "ignoreCase": false,
                    "nullHandling": "NATIVE",
                    "ascending": false,
                    "descending": true
                }
            ],
            "offset": 0,
            "pageNumber": 0,
            "pageSize": 10,
            "unpaged": false,
            "paged": true
        },
        "totalPages": 2,
        "totalElements": 13,
        "last": false,
        "size": 10,
        "number": 0,
        "sort": [
            {
                "direction": "DESC",
                "property": "created",
                "ignoreCase": false,
                "nullHandling": "NATIVE",
                "ascending": false,
                "descending": true
            }
        ],
        "numberOfElements": 10,
        "first": true,
        "empty": false
    },
    "path": "/api/patient",
    "requestId": "c47fba20-8b80-4d71-86f3-a6ab791cdf23",
    "version": "1.0"
}